{"photos":{"page":1,"pages":10,"perpage":100,"total":"1000","photo":[{"id":"50912528001","owner":"188609181@N08","secret":"d860f2e300","server":"65535","farm":66,"title":"BreakMeDaddy","ispublic":1,"isfriend":0,"isfamily":0},{"id":"50912504306","owner":"188609181@N08","secret":"4751264c7d","server":"65535","farm":66,"title":"DeepDaddy","ispublic":1,"isfriend":0,"isfamily":0},{"id":"50911553738","owner":"7657688@N03","secret":"c810a0329d","server":"65535","farm":66,"title":"I'm bored","ispublic":1,"isfriend":0,"isfamily":0},{"id":"50912145061","owner":"189344702@N04","secret":"40e3316b56","server":"65535","farm":66,"title":"More Love Please...","ispublic":1,"isfriend":0,"isfamily":0},{"id":"50911571031","owner":"138171302@N03","secret":"fcd68f60dc","server":"65535","farm":66,"title":"\u2116 108","ispublic":1,"isfriend":0,"isfamily":0},{"id":"50907463683","owner":"98062192@N08","secret":"ce1d9a9117","server":"65535","farm":66,"title":"Manfred...","ispublic":1,"isfriend":0,"isfamily":0},{"id":"50910281502","owner":"184307436@N07","secret":"aaaa702418","server":"65535","farm":66,"title":"I NEED LOVE!! PET ME!!","ispublic":1,"isfriend":0,"isfamily":0},{"id":"50910130116","owner":"188609181@N08","secret":"59446d0e88","server":"65535","farm":66,"title":"AnEternityWithYou","ispublic":1,"isfriend":0,"isfamily":0},{"id":"50910255597","owner":"188609181@N08","secret":"730d4b842b","server":"65535","farm":66,"title":"DaddysPrincess","ispublic":1,"isfriend":0,"isfamily":0},{"id":"50909960441","owner":"20985260@N02","secret":"57b0484f51","server":"65535","farm":66,"title":"IMG_20210204_113856_496","ispublic":1,"isfriend":0,"isfamily":0},{"id":"50909983187","owner":"99926996@N00","secret":"1cb795d345","server":"65535","farm":66,"title":"","ispublic":1,"isfriend":0,"isfamily":0},{"id":"50909850581","owner":"99926996@N00","secret":"dd01dc9f00","server":"65535","farm":66,"title":"","ispublic":1,"isfriend":0,"isfamily":0},{"id":"50909797736","owner":"15742277@N04","secret":"9b371b2a8e","server":"65535","farm":66,"title":"Pause","ispublic":1,"isfriend":0,"isfamily":0},{"id":"50909604111","owner":"30530543@N06","secret":"e2e64914cd","server":"65535","farm":66,"title":"\u201cLucy\u201d","ispublic":1,"isfriend":0,"isfamily":0},{"id":"50909391921","owner":"145392722@N03","secret":"0f8fba292b","server":"65535","farm":66,"title":"\u2014 Neon Flame","ispublic":1,"isfriend":0,"isfamily":0},{"id":"50909331091","owner":"192052894@N06","secret":"e2f9bdeba8","server":"65535","farm":66,"title":"Kiri","ispublic":1,"isfriend":0,"isfamily":0},{"id":"50908968217","owner":"36616854@N02","secret":"91495c2b08","server":"65535","farm":66,"title":"The Missing Lynx","ispublic":1,"isfriend":0,"isfamily":0},{"id":"50908949857","owner":"36616854@N02","secret":"6ec4bffc07","server":"65535","farm":66,"title":"Bogarting the Boardwalk","ispublic":1,"isfriend":0,"isfamily":0},{"id":"50906944828","owner":"184307436@N07","secret":"2b9ba3c006","server":"65535","farm":66,"title":"Kitten Camera Curiosity","ispublic":1,"isfriend":0,"isfamily":0},{"id":"50906216918","owner":"185111469@N02","secret":"be76a793f2","server":"65535","farm":66,"title":"Snow day!","ispublic":1,"isfriend":0,"isfamily":0},{"id":"50906229591","owner":"191995553@N05","secret":"a5a8cc5a9d","server":"65535","farm":66,"title":"Chilling Cat \ud83d\ude0e\ud83d\udc31","ispublic":1,"isfriend":0,"isfamily":0},{"id":"50906133742","owner":"21395617@N03","secret":"c59f2bd1ca","server":"65535","farm":66,"title":"C is for cats!","ispublic":1,"isfriend":0,"isfamily":0},{"id":"50905208313","owner":"188262698@N05","secret":"b7734fdcf5","server":"65535","farm":66,"title":"Kicia","ispublic":1,"isfriend":0,"isfamily":0},{"id":"50905614207","owner":"19872565@N00","secret":"4aabbd31a9","server":"65535","farm":66,"title":"20150215_8037c","ispublic":1,"isfriend":0,"isfamily":0},{"id":"50905516882","owner":"43479387@N00","secret":"ce90316936","server":"65535","farm":66,"title":"Saint Petersburg","ispublic":1,"isfriend":0,"isfamily":0},{"id":"50905362611","owner":"192009170@N02","secret":"825851da31","server":"65535","farm":66,"title":"Sophie 2007-2019 RIP","ispublic":1,"isfriend":0,"isfamily":0},{"id":"50905339617","owner":"7657688@N03","secret":"8c0c9771fa","server":"65535","farm":66,"title":"Schotia female leopard cub","ispublic":1,"isfriend":0,"isfamily":0},{"id":"50904660287","owner":"49819250@N03","secret":"6b9a9d37be","server":"65535","farm":66,"title":"\u53f0\u6771\u8c93\u8c932","ispublic":1,"isfriend":0,"isfamily":0},{"id":"50904658762","owner":"49819250@N03","secret":"aa30fc0539","server":"65535","farm":66,"title":"\u53f0\u6771\u8c93\u8c93","ispublic":1,"isfriend":0,"isfamily":0},{"id":"50904951907","owner":"38941615@N02","secret":"d68e7f4948","server":"65535","farm":66,"title":"Sweet kitten","ispublic":1,"isfriend":0,"isfamily":0},{"id":"50904085918","owner":"154683102@N05","secret":"32afce3c83","server":"65535","farm":66,"title":"\u2022 YURAQ \u2022","ispublic":1,"isfriend":0,"isfamily":0},{"id":"50904775461","owner":"33562472@N04","secret":"bae627b9a4","server":"65535","farm":66,"title":"The Vader","ispublic":1,"isfriend":0,"isfamily":0},{"id":"50904775456","owner":"33562472@N04","secret":"ce80fb71f0","server":"65535","farm":66,"title":"The Vader","ispublic":1,"isfriend":0,"isfamily":0},{"id":"50904073963","owner":"33562472@N04","secret":"42cb688d1c","server":"65535","farm":66,"title":"The Vader","ispublic":1,"isfriend":0,"isfamily":0},{"id":"50904621436","owner":"137508752@N04","secret":"ac3d697c01","server":"65535","farm":66,"title":"Invitation","ispublic":1,"isfriend":0,"isfamily":0},{"id":"50904505522","owner":"106123975@N05","secret":"06d2232f5a","server":"65535","farm":66,"title":"\u201cLes sens abusent souvent la raison par de fausses apparences.\u201d","ispublic":1,"isfriend":0,"isfamily":0},{"id":"50903637428","owner":"191257052@N04","secret":"bd1562b9f0","server":"65535","farm":66,"title":"How To Train A Cat To Be Well-Behaved In 7 Easy Steps","ispublic":1,"isfriend":0,"isfamily":0},{"id":"50903161627","owner":"87075678@N00","secret":"a3f7392092","server":"65535","farm":66,"title":"Kiri, cat-staring, as usual","ispublic":1,"isfriend":0,"isfamily":0},{"id":"50903161252","owner":"87075678@N00","secret":"8ac3d8d421","server":"65535","farm":66,"title":"On top","ispublic":1,"isfriend":0,"isfamily":0},{"id":"50903042601","owner":"87075678@N00","secret":"e842ea8ffd","server":"65535","farm":66,"title":"Lydia_4882-2","ispublic":1,"isfriend":0,"isfamily":0},{"id":"50902334933","owner":"87075678@N00","secret":"41175153e4","server":"65535","farm":66,"title":"Lydia_4882-3","ispublic":1,"isfriend":0,"isfamily":0},{"id":"50903042126","owner":"87075678@N00","secret":"ef96d47b7b","server":"65535","farm":66,"title":"Lydia_4896","ispublic":1,"isfriend":0,"isfamily":0},{"id":"50902203698","owner":"50312924@N08","secret":"b593a514cb","server":"65535","farm":66,"title":"Grimm","ispublic":1,"isfriend":0,"isfamily":0},{"id":"50902645347","owner":"118737397@N03","secret":"a219aa35d9","server":"65535","farm":66,"title":"Trauma_02","ispublic":1,"isfriend":0,"isfamily":0},{"id":"50901817698","owner":"118737397@N03","secret":"522b874b39","server":"65535","farm":66,"title":"Trauma_01","ispublic":1,"isfriend":0,"isfamily":0},{"id":"50902318621","owner":"96580860@N08","secret":"75ec6ec3c9","server":"65535","farm":66,"title":"Wild Kitten","ispublic":1,"isfriend":0,"isfamily":0},{"id":"50901609873","owner":"96580860@N08","secret":"b5a606396d","server":"65535","farm":66,"title":"Wild Kitten","ispublic":1,"isfriend":0,"isfamily":0},{"id":"50901609933","owner":"96580860@N08","secret":"7e4370427b","server":"65535","farm":66,"title":"Wild Kitten","ispublic":1,"isfriend":0,"isfamily":0},{"id":"50902395892","owner":"32373903@N07","secret":"1dcf863c6a","server":"65535","farm":66,"title":"The Kitten at 6 Months","ispublic":1,"isfriend":0,"isfamily":0},{"id":"50901159323","owner":"33050285@N03","secret":"4f5f197304","server":"65535","farm":66,"title":"Full grown kitten","ispublic":1,"isfriend":0,"isfamily":0},{"id":"50901134513","owner":"63189170@N04","secret":"7828f2619f","server":"65535","farm":66,"title":"Handmade black cat and Chiwawa ,chihuahua  MochiEgg wedding cake topper, custom pets wedding cake decoration ideas","ispublic":1,"isfriend":0,"isfamily":0},{"id":"50900638368","owner":"190334296@N07","secret":"e2174b70ec","server":"65535","farm":66,"title":"Zo\u00eb & son Vito","ispublic":1,"isfriend":0,"isfamily":0},{"id":"50901260086","owner":"93293461@N03","secret":"803687cbf1","server":"65535","farm":66,"title":"PomPom","ispublic":1,"isfriend":0,"isfamily":0},{"id":"50901028246","owner":"38941615@N02","secret":"73bcf62670","server":"65535","farm":66,"title":"Cute Kitty","ispublic":1,"isfriend":0,"isfamily":0},{"id":"50900569316","owner":"136778492@N04","secret":"8319599a4d","server":"65535","farm":66,"title":"Cup of cat, anyone?","ispublic":1,"isfriend":0,"isfamily":0},{"id":"50899741383","owner":"191647630@N04","secret":"d636c0a86c","server":"65535","farm":66,"title":"sleepy head","ispublic":1,"isfriend":0,"isfamily":0},{"id":"50900572327","owner":"191647630@N04","secret":"5818e81090","server":"65535","farm":66,"title":"goldeneye","ispublic":1,"isfriend":0,"isfamily":0},{"id":"50899872061","owner":"15742277@N04","secret":"3f2cb90b8c","server":"65535","farm":66,"title":"On The Move","ispublic":1,"isfriend":0,"isfamily":0},{"id":"50899568822","owner":"85836249@N08","secret":"f9b62b2c0d","server":"65535","farm":66,"title":"IMG_20210123_173838593","ispublic":1,"isfriend":0,"isfamily":0},{"id":"50899329427","owner":"85836249@N08","secret":"d0a250f530","server":"0","farm":0,"title":"VID_20201205_223338614","ispublic":1,"isfriend":0,"isfamily":0},{"id":"50899140461","owner":"85836249@N08","secret":"903798ccc7","server":"65535","farm":66,"title":"IMG_20210130_175319036","ispublic":1,"isfriend":0,"isfamily":0},{"id":"50898413428","owner":"85836249@N08","secret":"747a0149d9","server":"0","farm":0,"title":"VID_20210131_115834407","ispublic":1,"isfriend":0,"isfamily":0},{"id":"50898404003","owner":"85836249@N08","secret":"d50658863b","server":"65535","farm":66,"title":"IMG_20210201_103737703","ispublic":1,"isfriend":0,"isfamily":0},{"id":"50898398068","owner":"85836249@N08","secret":"b5524bbd6d","server":"65535","farm":66,"title":"IMG_20210111_045950051","ispublic":1,"isfriend":0,"isfamily":0},{"id":"50898507896","owner":"63189170@N04","secret":"b5c0793e01","server":"65535","farm":66,"title":"handmade Japanese cat ,handmade Japanese decor, Japanese doll, lovely cat decor, miniature, handmade home decor, handmade art dolls","ispublic":1,"isfriend":0,"isfamily":0},{"id":"50897716113","owner":"13407304@N05","secret":"662c77b9c1","server":"65535","farm":66,"title":"IMGP8783","ispublic":1,"isfriend":0,"isfamily":0},{"id":"50898430271","owner":"13407304@N05","secret":"d22357dd79","server":"65535","farm":66,"title":"IMGP8784","ispublic":1,"isfriend":0,"isfamily":0},{"id":"50898429761","owner":"13407304@N05","secret":"9e5a01d85a","server":"65535","farm":66,"title":"IMGP8785","ispublic":1,"isfriend":0,"isfamily":0},{"id":"50898428816","owner":"13407304@N05","secret":"5180ce0799","server":"65535","farm":66,"title":"IMGP8788","ispublic":1,"isfriend":0,"isfamily":0},{"id":"50898428541","owner":"13407304@N05","secret":"61d231963b","server":"65535","farm":66,"title":"IMGP8789","ispublic":1,"isfriend":0,"isfamily":0},{"id":"50898428236","owner":"13407304@N05","secret":"08a0598b9e","server":"65535","farm":66,"title":"IMGP8790","ispublic":1,"isfriend":0,"isfamily":0},{"id":"50897706143","owner":"130819462@N04","secret":"42208a1bd4","server":"65535","farm":66,"title":"Where's my breakfast?","ispublic":1,"isfriend":0,"isfamily":0},{"id":"50897846601","owner":"39683033@N08","secret":"ef20261b5e","server":"65535","farm":66,"title":"Mandy Monday: Girl In Sunshine","ispublic":1,"isfriend":0,"isfamily":0},{"id":"50897666601","owner":"91280126@N05","secret":"d3af33cf07","server":"65535","farm":66,"title":"out there 1\/334","ispublic":1,"isfriend":0,"isfamily":0},{"id":"50897603552","owner":"184307436@N07","secret":"52f84c5467","server":"65535","farm":66,"title":"I Present to You, Copper!","ispublic":1,"isfriend":0,"isfamily":0},{"id":"50896654268","owner":"183807253@N05","secret":"72dcd89145","server":"65535","farm":66,"title":"Tales from the windowsill...kitten gazing.","ispublic":1,"isfriend":0,"isfamily":0},{"id":"50897017352","owner":"184307436@N07","secret":"9c87824cd2","server":"65535","farm":66,"title":"Theodore Felix","ispublic":1,"isfriend":0,"isfamily":0},{"id":"50896730531","owner":"43822276@N00","secret":"7b4a1e406b","server":"65535","farm":66,"title":"Little Miss Mischief","ispublic":1,"isfriend":0,"isfamily":0},{"id":"50895722888","owner":"191907126@N03","secret":"37ce5a9532","server":"65535","farm":66,"title":"lots of -t\u0336r\u0336e\u0336a\u0336t\u0336s\u0336- patience","ispublic":1,"isfriend":0,"isfamily":0},{"id":"50894588593","owner":"91873384@N04","secret":"8732035637","server":"65535","farm":66,"title":"Ulysses","ispublic":1,"isfriend":0,"isfamily":0},{"id":"50895418637","owner":"91873384@N04","secret":"cf6894f70a","server":"65535","farm":66,"title":"Ulysses & me","ispublic":1,"isfriend":0,"isfamily":0},{"id":"50895226526","owner":"191722061@N04","secret":"56b7789276","server":"65535","farm":66,"title":"Izzy.","ispublic":1,"isfriend":0,"isfamily":0},{"id":"50895164017","owner":"41105393@N08","secret":"fdeee98b30","server":"65535","farm":66,"title":"Filou Black & White","ispublic":1,"isfriend":0,"isfamily":0},{"id":"50893047318","owner":"155567210@N02","secret":"5e437bdb5e","server":"65535","farm":66,"title":"Hipster Tony","ispublic":1,"isfriend":0,"isfamily":0},{"id":"50893869542","owner":"115894296@N08","secret":"0a81a30a83","server":"65535","farm":66,"title":"Pussy","ispublic":1,"isfriend":0,"isfamily":0},{"id":"50893286621","owner":"95020224@N03","secret":"37997bb705","server":"65535","farm":66,"title":"cat","ispublic":1,"isfriend":0,"isfamily":0},{"id":"50892496873","owner":"189562189@N02","secret":"9119bd9832","server":"65535","farm":66,"title":"da bois","ispublic":1,"isfriend":0,"isfamily":0},{"id":"50892496298","owner":"189562189@N02","secret":"713d9efebb","server":"65535","farm":66,"title":"C baby boy","ispublic":1,"isfriend":0,"isfamily":0},{"id":"50892496183","owner":"189562189@N02","secret":"6cf36f356c","server":"65535","farm":66,"title":"Z baby boy","ispublic":1,"isfriend":0,"isfamily":0},{"id":"50892491648","owner":"23089307@N02","secret":"23dbd62e16","server":"65535","farm":66,"title":"Cat on Dresser","ispublic":1,"isfriend":0,"isfamily":0},{"id":"50892889541","owner":"191380215@N04","secret":"ce8d81bc01","server":"65535","farm":66,"title":"OYI - Kitten AD","ispublic":1,"isfriend":0,"isfamily":0},{"id":"50891847413","owner":"184307436@N07","secret":"fb2405d2db","server":"65535","farm":66,"title":"Eye of the Felix","ispublic":1,"isfriend":0,"isfamily":0},{"id":"50891392783","owner":"19872565@N00","secret":"ff34aef8be","server":"65535","farm":66,"title":"20170903_4049c","ispublic":1,"isfriend":0,"isfamily":0},{"id":"50890706418","owner":"187911265@N02","secret":"2885b5238d","server":"65535","farm":66,"title":"Look::121","ispublic":1,"isfriend":0,"isfamily":0},{"id":"50891499271","owner":"13501938@N00","secret":"22607395d0","server":"65535","farm":66,"title":"IN PLAIN SIGHT","ispublic":1,"isfriend":0,"isfamily":0},{"id":"50891263411","owner":"41569704@N00","secret":"725221a9e9","server":"65535","farm":66,"title":"Ellen: \"Dad's food smells good\"","ispublic":1,"isfriend":0,"isfamily":0},{"id":"50891114457","owner":"29617521@N06","secret":"c79ab302ae","server":"65535","farm":66,"title":"Milo","ispublic":1,"isfriend":0,"isfamily":0},{"id":"50890784166","owner":"191692609@N02","secret":"f8241c769b","server":"65535","farm":66,"title":"Say \"Cheese\"~","ispublic":1,"isfriend":0,"isfamily":0},{"id":"50902436027","owner":"96580860@N08","secret":"19ca2d67d6","server":"65535","farm":66,"title":"Wild Kitten","ispublic":1,"isfriend":0,"isfamily":0},{"id":"50901609903","owner":"96580860@N08","secret":"29c99cfa9e","server":"65535","farm":66,"title":"Wild Kitten","ispublic":1,"isfriend":0,"isfamily":0}]},"stat":"ok"}
